Copenhagen newspapers concerning Dybbøl 1864
…
Tidying

We have used the tidytext approach and the unnest_tokens-function to
break up the text into individual words

tidy_cph_dybbøl_1864 <- cph_dybbøl_1864 %>% 
  unnest_tokens(word, fulltext_org)

Now we have a new column called words in our tidy-tibble and we can
count the most frequent words

tidy_cph_dybbøl_1864 %>% 
  count(word, sort = TRUE)

## # A tibble: 71,557 × 2
##    word      n
##    <chr> <int>
##  1 i     11206
##  2 og    10918
##  3 at     9336
##  4 den    6790
##  5 af     5975
##  6 til    5874
##  7 en     5094
##  8 de     5007
##  9 det    4967
## 10 paa    4073
## # ℹ 71,547 more rows
…
To use the stopword-list efficiently we are using “anti_join” before
“count” so we can sort out the the stopwords

tidy_cph_dybbøl_1864 %>% 
  anti_join(stopord_1800) %>% 
  count(word, sort = TRUE)

## Joining with `by = join_by(word)`

## # A tibble: 71,293 × 2
##    word         n
##    <chr>    <int>
##  1 dybbøl     748
##  2 fjenden    568
##  3 april      555
##  4 vor        530
##  5 vore       509
##  6 os         498
##  7 tilbage    410
##  8 regiment   402
##  9 selv       392
## 10 danmark    371
## # ℹ 71,283 more rows
…
stopword_extra <- tibble(word=c("mig","hvis","sit","derfor","sine","thi"))

Now we are using “anti_join” before “count” again so we can sort out
the stopwords from the stopord_1800-list and our stopword_extra-list

tidy_cph_dybbøl_1864 %>% 
  anti_join(stopord_1800) %>% 
  anti_join(stopword_extra) %>% 
  count(word, sort = TRUE)

## Joining with `by = join_by(word)`
## Joining with `by = join_by(word)`

## # A tibble: 71,287 × 2
##    word         n
##    <chr>    <int>
##  1 dybbøl     748
##  2 fjenden    568
##  3 april      555
##  4 vor        530
##  5 vore       509
##  6 os         498
##  7 tilbage    410
##  8 regiment   402
##  9 selv       392
## 10 danmark    371
## # ℹ 71,277 more rows
…
