Tønder newspapers concerning Dybbøl 1864
…
Tidying

We have used the tidytext approach and the unnest_tokens-function to
break up the text into individual words

tidy_tøn_dybbøl_1864 <- tøn_dybbøl_1864 %>% 
  unnest_tokens(word, fulltext_org)

Now we have a new column called words in our tidy-tibble and we can
count the most frequent words

tidy_tøn_dybbøl_1864 %>% 
  count(word, sort = TRUE)

## # A tibble: 1,429 × 2
##    word      n
##    <chr> <int>
##  1 i        94
##  2 og       65
##  3 at       44
##  4 til      39
##  5 af       37
##  6 den      36
##  7 as       33
##  8 paa      30
##  9 er       26
## 10 de       25
## # ℹ 1,419 more rows
…
To use the stopword-list efficiently we are using “anti_join” before
“count” so we can sort out the the stopwords

tidy_tøn_dybbøl_1864 %>% 
  anti_join(stopord_1800) %>% 
  count(word, sort = TRUE)

## Joining with `by = join_by(word)`

## # A tibble: 1,272 × 2
##    word        n
##    <chr>   <int>
##  1 ifølge      8
##  2 par         8
##  3 dybbøl      7
##  4 kampen      6
##  5 slesvig     6
##  6 tab         6
##  7 tilbage     6
##  8 berlin      5
##  9 danske      5
## 10 fjenden     5
## # ℹ 1,262 more rows
…
stopword_extra <- tibble(word=c("mig","hvis","sit","derfor","sine","thi"))

Now we are using “anti_join” before “count” again so we can sort out
the stopwords from the stopord_1800-list and our stopword_extra-list

tidy_tøn_dybbøl_1864 %>% 
  anti_join(stopord_1800) %>% 
  anti_join(stopword_extra) %>% 
  count(word, sort = TRUE)

## Joining with `by = join_by(word)`
## Joining with `by = join_by(word)`

## # A tibble: 1,269 × 2
##    word        n
##    <chr>   <int>
##  1 ifølge      8
##  2 par         8
##  3 dybbøl      7
##  4 kampen      6
##  5 slesvig     6
##  6 tab         6
##  7 tilbage     6
##  8 berlin      5
##  9 danske      5
## 10 fjenden     5
## # ℹ 1,259 more rows
…
